%YAML 1.1
%TAG !u! tag:unity3d.com,2011:
--- !u!1045 &1
EditorBuildSettings:
  m_ObjectHideFlags: 0
  serializedVersion: 2
  m_Scenes:
  - enabled: 1
    path: Assets/Scenes/MainMenu.unity
    guid: 99f7105a79396a24a9d2446fbe386d8b
  - enabled: 1
    path: Assets/Scenes/CodeScene.unity
    guid: fdc4e4ea0c7f6604cbf85fc55c3cd404
  - enabled: 1
    path: Assets/Scenes/Credits.unity
    guid: 2ca8fa588a36e2944aca0e880746039a
  - enabled: 1
    path: Assets/Scenes/LevelSelect.unity
    guid: 494e79a8a1b1c0f4895403efee6ae742
  - enabled: 1
    path: Assets/Scenes/WinLoseScene.unity
    guid: 00b67a2befa920244b22e010dd1db9eb
  - enabled: 1
    path: Assets/Scenes/Level1.unity
    guid: 0bd9a664217f88a4a843b4e09df115f2
  - enabled: 1
    path: Assets/Scenes/Level2.unity
    guid: 012c4ba21163b54468d3698871fd4483
  - enabled: 1
    path: Assets/Scenes/Level3.unity
    guid: 2515a8edfcf2fe848a2821d9d6bec291
  - enabled: 1
    path: Assets/Scenes/Level4.unity
    guid: 034bf6f9e45dab742849c5640fbde04b
  - enabled: 1
    path: Assets/Scenes/Level5.unity
    guid: b4bda499bb7f303478ae2b40b867bf3a
  - enabled: 1
    path: Assets/Scenes/Level6.unity
    guid: 0018d570abc8b7545a560f7758a80b6a
  - enabled: 1
    path: Assets/Scenes/Level7.unity
    guid: 7f8a54f24360c054fa8196c6fe18dfc9
  - enabled: 1
    path: Assets/Scenes/Level8.unity
    guid: c8a7e170e73343d4fb69ea8c261474b9
  - enabled: 1
    path: Assets/Scenes/Level9.unity
    guid: 2320011910f43c74f9ad64fe7bb2e98c
  - enabled: 1
    path: Assets/Scenes/Level10.unity
    guid: 3f5eadbde5c4bee4c86c9c122a6af7f1
  m_configObjects: {}
